<?xml version="1.0" encoding="utf-8"?>
<!-- Generator: Adobe Illustrator 16.0.0, SVG Export Plug-In . SVG Version: 6.00 Build 0)  -->
<!DOCTYPE svg PUBLIC "-//W3C//DTD SVG 1.1//EN" "http://www.w3.org/Graphics/SVG/1.1/DTD/svg11.dtd">
<svg version="1.1" xmlns="http://www.w3.org/2000/svg" xmlns:xlink="http://www.w3.org/1999/xlink" x="0px" y="0px" width="25px"
	 height="41px" viewBox="0 0 200 200" enable-background="new 0 0 200 200" xml:space="preserve">
<g id="Layer_1">
</g>
<g id="Capa_1">
	<path fill="#EA7A26" d="M170.401,74.266c0,6.936-1.094,13.623-3.125,19.92c-6.408,28.729-38.709,102.796-65.453,102.811
		c-0.215,0-1.605,0.009-1.82,0c-16.543-0.7-36.113-32.284-49.953-58.768c-0.535-1.022-1.064-2.047-1.584-3.073
		c-11.064-21.809-18.482-43.253-18.084-50.39c0.004-0.085,0.012-0.17,0.027-0.256c-0.535-3.34-0.811-6.761-0.811-10.244
		c0-37.246,31.52-67.441,70.404-67.441C138.882,6.824,170.401,37.02,170.401,74.266z"/>
	<circle fill="#FFFFFF" cx="99.999" cy="74.678" r="53.818"/>
	<path fill="#3A3938" d="M135.432,105.408c-0.824-1.74-2.06-3.771-3.707-6.092L108.365,65.85l20.271-19.205
		c2.508-2.395,3.762-4.81,3.762-7.243c0-2.021-0.739-3.734-2.218-5.138c-1.479-1.404-3.417-2.105-5.812-2.105
		c-1.834,0-3.305,0.393-4.408,1.179c-1.104,0.786-2.442,2.003-4.015,3.649L83.209,71.127V42.266c0-3.406-0.777-5.943-2.331-7.609
		c-1.554-1.665-3.585-2.498-6.092-2.498c-2.546,0-4.558,0.842-6.037,2.526c-1.479,1.685-2.218,4.212-2.218,7.581v61.205
		c0,2.621,0.056,4.624,0.168,6.009c0.112,1.386,0.43,2.603,0.955,3.649c0.71,1.273,1.721,2.284,3.032,3.033
		c1.31,0.748,2.676,1.123,4.099,1.123c2.471,0,4.492-0.834,6.064-2.499s2.358-4.221,2.358-7.665V90.107l13.645-13.084l19.71,30.322
		c0.785,1.348,1.684,2.846,2.695,4.492c1.01,1.647,2.246,2.968,3.705,3.959c1.461,0.991,3.35,1.488,5.672,1.488
		c2.471,0,4.426-0.674,5.868-2.021c1.44-1.348,2.161-2.938,2.161-4.773C136.666,108.844,136.254,107.149,135.432,105.408z"/>
</g>
</svg>
