<?xml version="1.0" encoding="utf-8"?>
<!-- Generator: Adobe Illustrator 16.0.0, SVG Export Plug-In . SVG Version: 6.00 Build 0)  -->
<!DOCTYPE svg PUBLIC "-//W3C//DTD SVG 1.1//EN" "http://www.w3.org/Graphics/SVG/1.1/DTD/svg11.dtd">
<svg version="1.1" xmlns="http://www.w3.org/2000/svg" xmlns:xlink="http://www.w3.org/1999/xlink" x="0px" y="0px" width="25px"
	 height="41px" viewBox="0 0 200 200" enable-background="new 0 0 200 200" xml:space="preserve">
<g id="Layer_1">
</g>
<g id="Capa_1">
	<path fill="#EA7A26" d="M171.937,71.883c0,7.086-1.116,13.919-3.191,20.354c-6.55,29.354-39.557,105.038-66.882,105.054
		c-0.221,0-1.641,0.006-1.861,0c-16.903-0.717-36.901-32.99-51.042-60.051c-0.546-1.045-1.088-2.092-1.618-3.139
		c-11.307-22.285-18.887-44.197-18.48-51.49c0.004-0.087,0.012-0.174,0.028-0.261c-0.546-3.411-0.827-6.908-0.827-10.467
		c0-38.059,32.207-68.913,71.938-68.913C139.729,2.97,171.937,33.824,171.937,71.883z"/>
	<circle fill="#FFFFFF" cx="100" cy="72.304" r="54.992"/>
	<g>
		<path fill="#3A3938" d="M133.99,105.742c0,1.941-0.664,3.52-1.988,4.73c-1.324,1.213-3.295,1.818-5.907,1.818h-45.19
			c-3.623,0-6.224-0.799-7.81-2.406c-1.589-1.604-2.38-4.199-2.38-7.785V40.393c0-2.389,0.352-4.343,1.063-5.853
			c0.708-1.511,1.819-2.614,3.33-3.302c1.514-0.693,3.444-1.037,5.797-1.037h43.904c2.649,0,4.619,0.585,5.904,1.764
			c1.289,1.175,1.934,2.713,1.934,4.62c0,1.942-0.645,3.5-1.934,4.674c-1.285,1.179-3.255,1.764-5.904,1.764H87.343v20.16h34.497
			c2.537,0,4.431,0.57,5.682,1.709c1.25,1.138,1.878,2.641,1.878,4.507c0,1.867-0.617,3.385-1.851,4.564
			c-1.229,1.174-3.136,1.763-5.709,1.763H87.343v23.352h38.752c2.612,0,4.583,0.605,5.907,1.82
			C133.326,102.111,133.99,103.725,133.99,105.742z"/>
	</g>
</g>
</svg>
