<?xml version="1.0" encoding="utf-8"?>
<!-- Generator: Adobe Illustrator 16.0.0, SVG Export Plug-In . SVG Version: 6.00 Build 0)  -->
<!DOCTYPE svg PUBLIC "-//W3C//DTD SVG 1.1//EN" "http://www.w3.org/Graphics/SVG/1.1/DTD/svg11.dtd">
<svg version="1.1" xmlns="http://www.w3.org/2000/svg" xmlns:xlink="http://www.w3.org/1999/xlink" x="0px" y="0px" width="25px"
	 height="41px" viewBox="0 0 200 200" enable-background="new 0 0 200 200" xml:space="preserve">
<g id="Layer_1">
</g>
<g id="Capa_1">
	<path fill="#EA7A26" d="M170.401,73.266c0,6.936-1.094,13.623-3.125,19.92c-6.408,28.729-38.709,102.796-65.453,102.811
		c-0.215,0-1.605,0.009-1.82,0c-16.543-0.7-36.113-32.284-49.953-58.768c-0.535-1.022-1.064-2.047-1.584-3.073
		c-11.064-21.809-18.482-43.253-18.084-50.39c0.004-0.085,0.012-0.17,0.027-0.256c-0.535-3.34-0.811-6.761-0.811-10.244
		c0-37.246,31.52-67.441,70.404-67.441C138.882,5.824,170.401,36.02,170.401,73.266z"/>
	<circle fill="#FFFFFF" cx="99.999" cy="73.678" r="53.818"/>
	<path fill="#3A3938" d="M135.341,36.304c-1.791-1.199-4.208-1.799-7.251-1.799h-4.941c-2.973,0-5.129,0.269-6.473,0.806
		c-1.342,0.537-2.336,1.504-2.98,2.9s-1.379,3.671-2.202,6.821l-11.44,43.13l-11.44-43.13c-0.824-3.15-1.558-5.425-2.202-6.821
		s-1.639-2.363-2.98-2.9c-1.344-0.537-3.501-0.806-6.473-0.806h-4.941c-3.044,0-5.461,0.6-7.251,1.799
		c-1.791,1.2-2.686,3.519-2.686,6.956v62.305c0,3.044,0.68,5.309,2.041,6.794c1.36,1.486,3.115,2.229,5.264,2.229
		c2.22,0,4.001-0.752,5.345-2.256c1.342-1.504,2.014-3.76,2.014-6.768V51.209l12.622,50.166c0.43,1.647,0.851,3.231,1.263,4.753
		c0.41,1.522,0.975,2.91,1.691,4.163c0.716,1.254,1.719,2.282,3.008,3.089c1.289,0.805,2.864,1.208,4.727,1.208
		c2.471,0,4.404-0.627,5.801-1.88s2.354-2.641,2.873-4.162c0.52-1.522,1.19-3.912,2.015-7.171l12.622-50.166v54.355
		c0,3.008,0.68,5.264,2.041,6.768c1.36,1.504,3.097,2.256,5.21,2.256c2.256,0,4.056-0.752,5.397-2.256
		c1.344-1.504,2.015-3.76,2.015-6.768V43.26C138.026,39.822,137.131,37.504,135.341,36.304z"/>
</g>
</svg>
