<?xml version="1.0" encoding="utf-8"?>
<!-- Generator: Adobe Illustrator 16.0.0, SVG Export Plug-In . SVG Version: 6.00 Build 0)  -->
<!DOCTYPE svg PUBLIC "-//W3C//DTD SVG 1.1//EN" "http://www.w3.org/Graphics/SVG/1.1/DTD/svg11.dtd">
<svg version="1.1" xmlns="http://www.w3.org/2000/svg" xmlns:xlink="http://www.w3.org/1999/xlink" x="0px" y="0px" width="25px"
	 height="41px" viewBox="0 0 200 200" enable-background="new 0 0 200 200" xml:space="preserve">
<g id="Layer_1">
</g>
<g id="Capa_1">
	<path fill="#EA7A26" d="M163.33,72.354c0,6.936-1.094,13.623-3.125,19.92c-6.408,28.728-38.709,102.796-65.453,102.81
		c-0.215,0-1.605,0.01-1.82,0c-16.543-0.699-36.113-32.283-49.953-58.768c-0.535-1.021-1.064-2.047-1.584-3.072
		c-11.064-21.809-18.482-43.253-18.084-50.39c0.004-0.085,0.012-0.17,0.027-0.256c-0.535-3.34-0.811-6.761-0.811-10.244
		c0-37.246,31.52-67.441,70.404-67.441C131.811,4.913,163.33,35.108,163.33,72.354z"/>
	<circle fill="#FFFFFF" cx="92.928" cy="72.766" r="53.818"/>
	<path fill="#3A3938" d="M126.091,33.047c-1.554-1.665-3.585-2.498-6.092-2.498c-2.471,0-4.465,0.842-5.98,2.526
		c-1.517,1.685-2.274,4.212-2.274,7.581v23.584H75.751V40.657c0-3.406-0.777-5.943-2.331-7.609
		c-1.554-1.665-3.585-2.498-6.093-2.498c-2.546,0-4.558,0.842-6.036,2.526c-1.479,1.685-2.218,4.212-2.218,7.581v64.855
		c0,3.369,0.748,5.906,2.246,7.609c1.496,1.703,3.5,2.555,6.008,2.555c2.471,0,4.492-0.842,6.064-2.527
		c1.572-1.684,2.359-4.229,2.359-7.637V77.829h35.993v27.683c0,3.369,0.749,5.906,2.246,7.609s3.5,2.555,6.009,2.555
		c2.471,0,4.492-0.842,6.064-2.527c1.572-1.684,2.357-4.229,2.357-7.637V40.657C128.421,37.25,127.644,34.713,126.091,33.047z"/>
</g>
</svg>
