<?xml version="1.0" encoding="utf-8"?>
<!-- Generator: Adobe Illustrator 16.0.0, SVG Export Plug-In . SVG Version: 6.00 Build 0)  -->
<!DOCTYPE svg PUBLIC "-//W3C//DTD SVG 1.1//EN" "http://www.w3.org/Graphics/SVG/1.1/DTD/svg11.dtd">
<svg version="1.1" xmlns="http://www.w3.org/2000/svg" xmlns:xlink="http://www.w3.org/1999/xlink" x="0px" y="0px" width="200px"
	 height="200px" viewBox="0 0 200 200" enable-background="new 0 0 200 200" xml:space="preserve">
<g id="Layer_1">
	<rect x="-0.659" fill="#DDDDDE" width="200.834" height="203.235"/>
	<path fill="#FFFFFF" d="M200.128,203.145V69.515c0,0-141.46-34.208-197.801,124.484c0,0-2.715,6.876-2.986,9.146L200.128,203.145z"
		/>
	<path fill="#AFAFAF" d="M200.659,203.235V75.975c0,0-72.664-19.223-142.033,36.866c0,0-42.346,33.628-55.768,85.795
		c0,0-0.968,4.264-0.968,4.6H200.659z"/>
	<path fill="#EA7A26" d="M178.527,185.722h-1.701c0.374-0.984,0.577-2.049,0.577-3.154c0-2.334-0.908-4.54-2.513-6.242
		c0.183-0.705,0.27-1.434,0.27-2.163c0-4.113-2.818-7.61-6.74-8.913v-67.98c0.462-0.15,0.89-0.396,1.258-0.74l11.237-10.511
		c1.313-1.227,1.313-3.226,0-4.456l-76.373-71.457c-1.319-1.231-3.45-1.231-4.769,0L56.108,50.96v-5c0-1.74-1.504-3.15-3.368-3.15
		H39.266c-1.862,0-3.372,1.41-3.372,3.15v23.913L23.406,81.562c-1.315,1.233-1.315,3.229,0,4.46l11.229,10.507
		c0.368,0.345,0.797,0.585,1.258,0.74v67.98c-3.916,1.303-6.73,4.8-6.73,8.913c0,0.729,0.087,1.458,0.265,2.163
		c-1.607,1.702-2.512,3.908-2.512,6.242c0,1.111,0.205,2.17,0.575,3.154h-1.703c-1.86,0-3.369,1.414-3.369,3.158
		c0,1.736,1.509,3.145,3.369,3.145h152.739c1.863,0,3.372-1.408,3.372-3.145C181.899,187.131,180.391,185.722,178.527,185.722z"/>
	<rect x="38.344" y="90.255" fill="none" width="129.787" height="68.763"/>
	<text transform="matrix(1 0 0 1 76.416 147.8389)" fill="#FFFFFF" font-family="'Arial-BoldMT'" font-size="80.4247">V</text>
</g>
<g id="Capa_1">
</g>
</svg>
